<svg width="22" height="22" viewBox="0 0 22 22" fill="none" xmlns="http://www.w3.org/2000/svg">
<path fill-rule="evenodd" clip-rule="evenodd" d="M0.412842 6C0.412842 2.82436 2.9872 0.25 6.16284 0.25H16.1628C19.3385 0.25 21.9128 2.82436 21.9128 6V16C21.9128 19.1756 19.3385 21.75 16.1628 21.75H6.16284C2.9872 21.75 0.412842 19.1756 0.412842 16V6ZM6.41284 16C6.41284 16.4142 6.74863 16.75 7.16284 16.75C7.57706 16.75 7.91284 16.4142 7.91284 16V13C7.91284 12.5858 7.57705 12.25 7.16284 12.25C6.74863 12.25 6.41284 12.5858 6.41284 13V16ZM11.1628 16.75C10.7486 16.75 10.4128 16.4142 10.4128 16V6C10.4128 5.58579 10.7486 5.25 11.1628 5.25C11.5771 5.25 11.9128 5.58579 11.9128 6V16C11.9128 16.4142 11.5771 16.75 11.1628 16.75ZM14.4128 16C14.4128 16.4142 14.7486 16.75 15.1628 16.75C15.5771 16.75 15.9128 16.4142 15.9128 16V9C15.9128 8.58579 15.5771 8.25 15.1628 8.25C14.7486 8.25 14.4128 8.58579 14.4128 9V16Z" fill="#006934"/>
</svg>
