<svg width="135" height="40" viewBox="0 0 135 40" fill="none" xmlns="http://www.w3.org/2000/svg">
<rect width="135" height="40" rx="12" fill="white"/>
<rect width="135" height="40" rx="14" fill="black"/>
<path d="M18.4177 12.2532C18.2157 12.4954 18.1126 12.8068 18.1296 13.1236L18.1296 26.8747C18.1087 27.1921 18.2123 27.5049 18.4177 27.7451L18.4607 27.7949L26.0567 20.0924L26.0567 19.9059L18.4607 12.2097L18.4177 12.2532Z" fill="url(#paint0_linear_144_1640)"/>
<path d="M28.5702 22.6601L26.0566 20.0926L26.0566 19.9061L28.5702 17.3386L28.6254 17.3759L31.6356 19.1041C32.4938 19.5953 32.4938 20.4034 31.6356 20.9008L28.6377 22.629L28.5702 22.6601Z" fill="url(#paint1_linear_144_1640)"/>
<path d="M28.644 22.6222L26.0569 19.9988L18.418 27.7448C18.5912 27.901 18.8129 27.991 19.0447 27.999C19.2765 28.0069 19.5038 27.9324 19.687 27.7882L28.644 22.6222Z" fill="url(#paint2_linear_144_1640)"/>
<path d="M28.644 17.3759L19.687 12.2161C19.505 12.07 19.2779 11.9936 19.0458 12.0004C18.8137 12.0072 18.5914 12.0968 18.418 12.2534L26.0569 19.9993L28.644 17.3759Z" fill="url(#paint3_linear_144_1640)"/>
<path d="M52.2663 18.5646C52.1894 18.3153 52.0832 18.0922 51.9478 17.8952C51.8155 17.6952 51.6554 17.5244 51.4677 17.3828C51.283 17.2412 51.0707 17.1351 50.8306 17.0643C50.5906 16.9904 50.329 16.9535 50.0458 16.9535C49.538 16.9535 49.0856 17.0812 48.6886 17.3366C48.2915 17.5921 47.9792 17.9676 47.7514 18.4631C47.5268 18.9555 47.4144 19.5556 47.4144 20.2635C47.4144 20.9775 47.5268 21.5823 47.7514 22.0778C47.9761 22.5733 48.2885 22.9503 48.6886 23.2088C49.0887 23.4643 49.5534 23.592 50.0827 23.592C50.5629 23.592 50.9783 23.4996 51.3292 23.315C51.6831 23.1303 51.9555 22.8687 52.1463 22.5302C52.3371 22.1886 52.4325 21.7885 52.4325 21.3299L52.8203 21.3899L50.2536 21.3899L50.2536 20.0511L54.0898 20.0511L54.0898 21.1868C54.0898 21.9962 53.9175 22.6964 53.5728 23.2873C53.2281 23.8782 52.7541 24.3337 52.1509 24.6538C51.5477 24.9708 50.8552 25.1293 50.0735 25.1293C49.2025 25.1293 48.4377 24.9338 47.7791 24.543C47.1236 24.149 46.6112 23.5904 46.2418 22.8672C45.8756 22.1409 45.6925 21.2791 45.6925 20.282C45.6925 19.5187 45.8002 18.837 46.0156 18.2369C46.2341 17.6367 46.5388 17.1274 46.9297 16.7088C47.3205 16.2872 47.7791 15.9671 48.3054 15.7486C48.8317 15.527 49.4041 15.4162 50.0227 15.4162C50.5459 15.4162 51.0337 15.4931 51.4862 15.647C51.9386 15.7978 52.3402 16.0133 52.6911 16.2933C53.045 16.5734 53.3358 16.9058 53.5636 17.2905C53.7913 17.6752 53.9406 18.0999 54.0114 18.5646L52.2663 18.5646ZM58.7652 25.1385C58.0727 25.1385 57.4726 24.9862 56.9648 24.6815C56.4569 24.3768 56.063 23.9505 55.7829 23.4027C55.5059 22.8549 55.3675 22.2147 55.3675 21.4822C55.3675 20.7498 55.5059 20.1081 55.7829 19.5572C56.063 19.0063 56.4569 18.5785 56.9648 18.2738C57.4726 17.9691 58.0727 17.8168 58.7652 17.8168C59.4577 17.8168 60.0578 17.9691 60.5656 18.2738C61.0734 18.5785 61.4658 19.0063 61.7428 19.5572C62.0229 20.1081 62.1629 20.7498 62.1629 21.4822C62.1629 22.2147 62.0229 22.8549 61.7428 23.4027C61.4658 23.9505 61.0734 24.3768 60.5656 24.6815C60.0578 24.9862 59.4577 25.1385 58.7652 25.1385ZM58.7744 23.7997C59.1499 23.7997 59.4638 23.6966 59.7162 23.4904C59.9685 23.2811 60.1563 23.0011 60.2794 22.6502C60.4056 22.2994 60.4687 21.9085 60.4687 21.4776C60.4687 21.0437 60.4056 20.6513 60.2794 20.3004C60.1563 19.9465 59.9685 19.6649 59.7162 19.4556C59.4638 19.2463 59.1499 19.1417 58.7744 19.1417C58.3897 19.1417 58.0696 19.2463 57.8142 19.4556C57.5618 19.6649 57.3725 19.9465 57.2464 20.3004C57.1233 20.6513 57.0617 21.0437 57.0617 21.4776C57.0617 21.9085 57.1233 22.2994 57.2464 22.6502C57.3725 23.0011 57.5618 23.2811 57.8142 23.4904C58.0696 23.6966 58.3897 23.7997 58.7744 23.7997ZM66.6744 25.1385C65.9819 25.1385 65.3817 24.9862 64.8739 24.6815C64.3661 24.3768 63.9722 23.9505 63.6921 23.4027C63.4151 22.8549 63.2766 22.2147 63.2766 21.4822C63.2766 20.7498 63.4151 20.1081 63.6921 19.5572C63.9722 19.0063 64.3661 18.5785 64.8739 18.2738C65.3817 17.9691 65.9819 17.8168 66.6744 17.8168C67.3668 17.8168 67.967 17.9691 68.4748 18.2738C68.9826 18.5785 69.375 19.0063 69.652 19.5572C69.9321 20.1081 70.0721 20.7498 70.0721 21.4822C70.0721 22.2147 69.9321 22.8549 69.652 23.4027C69.375 23.9505 68.9826 24.3768 68.4748 24.6815C67.967 24.9862 67.3668 25.1385 66.6744 25.1385ZM66.6836 23.7997C67.0591 23.7997 67.373 23.6966 67.6254 23.4904C67.8777 23.2811 68.0655 23.0011 68.1886 22.6502C68.3147 22.2994 68.3778 21.9085 68.3778 21.4776C68.3778 21.0437 68.3147 20.6513 68.1886 20.3004C68.0655 19.9465 67.8777 19.6649 67.6254 19.4556C67.373 19.2463 67.0591 19.1417 66.6836 19.1417C66.2989 19.1417 65.9788 19.2463 65.7234 19.4556C65.471 19.6649 65.2817 19.9465 65.1555 20.3004C65.0324 20.6513 64.9709 21.0437 64.9709 21.4776C64.9709 21.9085 65.0324 22.2994 65.1555 22.6502C65.2817 23.0011 65.471 23.2811 65.7234 23.4904C65.9788 23.6966 66.2989 23.7997 66.6836 23.7997ZM74.5743 27.8068C73.9742 27.8068 73.4587 27.7253 73.0278 27.5621C72.5969 27.4021 72.2507 27.1867 71.9891 26.9158C71.7275 26.645 71.5459 26.3449 71.4443 26.0156L72.9493 25.6509C73.017 25.7894 73.1155 25.9264 73.2448 26.0618C73.374 26.2003 73.5479 26.3142 73.7664 26.4034C73.988 26.4957 74.2665 26.5419 74.602 26.5419C75.076 26.5419 75.4684 26.4265 75.7792 26.1957C76.0901 25.9679 76.2455 25.5924 76.2455 25.0692L76.2455 23.7259L76.1624 23.7259C76.0762 23.8982 75.95 24.0752 75.7838 24.2567C75.6207 24.4383 75.4037 24.5907 75.1329 24.7138C74.8651 24.8369 74.5281 24.8984 74.1219 24.8984C73.5771 24.8984 73.0832 24.7707 72.64 24.5153C72.1999 24.2567 71.849 23.872 71.5874 23.3612C71.3289 22.8472 71.1997 22.204 71.1997 21.4315C71.1997 20.6528 71.3289 19.9957 71.5874 19.4602C71.849 18.9216 72.2014 18.5138 72.6446 18.2369C73.0878 17.9568 73.5818 17.8168 74.1265 17.8168C74.542 17.8168 74.8836 17.8875 75.1514 18.0291C75.4222 18.1676 75.6376 18.3353 75.7977 18.5323C75.9577 18.7262 76.0793 18.9093 76.1624 19.0817L76.2547 19.0817L76.2547 17.9091L77.9028 17.9091L77.9028 25.1154C77.9028 25.7217 77.7581 26.2234 77.4688 26.6204C77.1795 27.0174 76.7841 27.3144 76.2824 27.5114C75.7807 27.7083 75.2114 27.8068 74.5743 27.8068ZM74.5882 23.5874C74.9421 23.5874 75.2437 23.5012 75.493 23.3288C75.7423 23.1565 75.9316 22.9087 76.0608 22.5856C76.1901 22.2624 76.2547 21.8746 76.2547 21.4222C76.2547 20.976 76.1901 20.5851 76.0608 20.2496C75.9346 19.9142 75.7469 19.6541 75.4976 19.4695C75.2514 19.2817 74.9482 19.1879 74.5882 19.1879C74.2158 19.1879 73.9049 19.2848 73.6556 19.4787C73.4063 19.6726 73.2186 19.9388 73.0924 20.2773C72.9662 20.6128 72.9031 20.9944 72.9031 21.4222C72.9031 21.8562 72.9662 22.2363 73.0924 22.5625C73.2217 22.8857 73.411 23.138 73.6602 23.3196C73.9126 23.4981 74.2219 23.5874 74.5882 23.5874ZM81.2867 15.5455L81.2867 25L79.6155 25L79.6155 15.5455L81.2867 15.5455ZM86.1444 25.1385C85.4334 25.1385 84.8194 24.9908 84.3024 24.6953C83.7884 24.3968 83.3929 23.9751 83.1159 23.4304C82.839 22.8826 82.7005 22.2378 82.7005 21.4961C82.7005 20.7667 82.839 20.1265 83.1159 19.5756C83.396 19.0217 83.7869 18.5908 84.2885 18.283C84.7902 17.9722 85.3796 17.8168 86.0566 17.8168C86.4937 17.8168 86.9061 17.8875 87.2939 18.0291C87.6847 18.1676 88.0294 18.383 88.3279 18.6754C88.6296 18.9678 88.8665 19.3402 89.0389 19.7926C89.2112 20.242 89.2974 20.7775 89.2974 21.3991L89.2974 21.9116L83.4853 21.9116L83.4853 20.7852L87.6955 20.7852C87.6924 20.4651 87.6232 20.1804 87.4877 19.9311C87.3523 19.6787 87.1631 19.4802 86.9199 19.3356C86.6799 19.1909 86.3998 19.1186 86.0797 19.1186C85.7381 19.1186 85.438 19.2017 85.1795 19.3679C84.921 19.531 84.7194 19.7464 84.5748 20.0142C84.4332 20.2789 84.3609 20.5697 84.3578 20.8867L84.3578 21.87C84.3578 22.2824 84.4332 22.6364 84.584 22.9318C84.7348 23.2242 84.9456 23.4489 85.2164 23.6058C85.4873 23.7597 85.8043 23.8366 86.1674 23.8366C86.4106 23.8366 86.6306 23.8028 86.8276 23.7351C87.0246 23.6643 87.1954 23.5612 87.34 23.4258C87.4847 23.2904 87.5939 23.1226 87.6678 22.9226L89.2282 23.098C89.1297 23.5104 88.9419 23.8705 88.665 24.1783C88.391 24.483 88.0402 24.7199 87.6124 24.8892C87.1846 25.0554 86.6953 25.1385 86.1444 25.1385ZM94.0097 25L94.0097 15.5455L97.5551 15.5455C98.2815 15.5455 98.8908 15.6809 99.3833 15.9517C99.8788 16.2225 100.253 16.5949 100.505 17.0689C100.761 17.5398 100.888 18.0753 100.888 18.6754C100.888 19.2817 100.761 19.8203 100.505 20.2912C100.25 20.7621 99.8726 21.1329 99.374 21.4038C98.8754 21.6715 98.2615 21.8054 97.532 21.8054L95.1823 21.8054L95.1823 20.3974L97.3012 20.3974C97.7259 20.3974 98.0737 20.3235 98.3445 20.1758C98.6154 20.0281 98.8154 19.8249 98.9447 19.5664C99.077 19.3079 99.1432 19.0109 99.1432 18.6754C99.1432 18.34 99.077 18.0445 98.9447 17.7891C98.8154 17.5336 98.6138 17.3351 98.3399 17.1935C98.0691 17.0489 97.7198 16.9766 97.292 16.9766L95.7224 16.9766L95.7224 25L94.0097 25ZM103.973 15.5455L103.973 25L102.302 25L102.302 15.5455L103.973 15.5455ZM107.732 25.1431C107.283 25.1431 106.878 25.0631 106.518 24.9031C106.161 24.7399 105.878 24.4999 105.669 24.1829C105.462 23.8659 105.359 23.475 105.359 23.0103C105.359 22.6102 105.433 22.2794 105.581 22.0178C105.729 21.7562 105.93 21.5469 106.186 21.3899C106.441 21.233 106.729 21.1145 107.049 21.0344C107.372 20.9513 107.706 20.8913 108.051 20.8544C108.466 20.8113 108.803 20.7728 109.062 20.739C109.32 20.7021 109.508 20.6467 109.625 20.5728C109.745 20.4959 109.805 20.3774 109.805 20.2173L109.805 20.1896C109.805 19.8419 109.702 19.5726 109.496 19.3817C109.289 19.1909 108.992 19.0955 108.605 19.0955C108.195 19.0955 107.871 19.1848 107.631 19.3633C107.394 19.5418 107.234 19.7526 107.15 19.9957L105.59 19.7741C105.713 19.3433 105.916 18.9832 106.199 18.6939C106.483 18.4015 106.829 18.183 107.238 18.0384C107.648 17.8906 108.1 17.8168 108.595 17.8168C108.937 17.8168 109.277 17.8568 109.616 17.9368C109.954 18.0168 110.264 18.1491 110.544 18.3338C110.824 18.5154 111.048 18.7631 111.218 19.0771C111.39 19.391 111.476 19.7834 111.476 20.2543L111.476 25L109.87 25L109.87 24.0259L109.814 24.0259C109.713 24.2229 109.57 24.4076 109.385 24.5799C109.203 24.7492 108.974 24.8861 108.697 24.9908C108.423 25.0923 108.101 25.1431 107.732 25.1431ZM108.166 23.9151C108.502 23.9151 108.792 23.849 109.039 23.7166C109.285 23.5812 109.474 23.4027 109.606 23.1811C109.742 22.9595 109.81 22.7179 109.81 22.4563L109.81 21.6207C109.757 21.6638 109.668 21.7038 109.542 21.7408C109.419 21.7777 109.28 21.81 109.126 21.8377C108.972 21.8654 108.82 21.89 108.669 21.9116C108.518 21.9331 108.388 21.9516 108.277 21.967C108.028 22.0008 107.804 22.0562 107.608 22.1332C107.411 22.2101 107.255 22.3178 107.141 22.4563C107.027 22.5917 106.97 22.7672 106.97 22.9826C106.97 23.2904 107.083 23.5227 107.307 23.6797C107.532 23.8366 107.818 23.9151 108.166 23.9151ZM113.941 27.6591C113.714 27.6591 113.503 27.6406 113.309 27.6037C113.118 27.5698 112.966 27.5298 112.852 27.4837L113.24 26.1818C113.483 26.2526 113.7 26.2865 113.891 26.2834C114.081 26.2803 114.249 26.2203 114.394 26.1033C114.541 25.9895 114.666 25.7987 114.768 25.5309L114.911 25.1477L112.339 17.9091L114.112 17.9091L115.746 23.2642L115.82 23.2642L117.459 17.9091L119.236 17.9091L116.397 25.8587C116.265 26.2341 116.09 26.5558 115.871 26.8235C115.652 27.0943 115.385 27.3005 115.068 27.4421C114.754 27.5868 114.378 27.6591 113.941 27.6591Z" fill="white"/>
<defs>
<linearGradient id="paint0_linear_144_1640" x1="25.3823" y1="12.9806" x2="14.9517" y2="23.267" gradientUnits="userSpaceOnUse">
<stop stop-color="#00A0FF"/>
<stop offset="0.01" stop-color="#00A1FF"/>
<stop offset="0.26" stop-color="#00BEFF"/>
<stop offset="0.51" stop-color="#00D2FF"/>
<stop offset="0.76" stop-color="#00DFFF"/>
<stop offset="1" stop-color="#00E3FF"/>
</linearGradient>
<linearGradient id="paint1_linear_144_1640" x1="32.7574" y1="19.9993" x2="17.9273" y2="19.9993" gradientUnits="userSpaceOnUse">
<stop stop-color="#FFE000"/>
<stop offset="0.41" stop-color="#FFBD00"/>
<stop offset="0.78" stop-color="#FFA500"/>
<stop offset="1" stop-color="#FF9C00"/>
</linearGradient>
<linearGradient id="paint2_linear_144_1640" x1="27.2401" y1="21.4286" x2="13.0925" y2="35.3746" gradientUnits="userSpaceOnUse">
<stop stop-color="#FF3A44"/>
<stop offset="1" stop-color="#C31162"/>
</linearGradient>
<linearGradient id="paint3_linear_144_1640" x1="16.4929" y1="7.67797" x2="22.8084" y2="13.9062" gradientUnits="userSpaceOnUse">
<stop stop-color="#32A071"/>
<stop offset="0.07" stop-color="#2DA771"/>
<stop offset="0.48" stop-color="#15CF74"/>
<stop offset="0.8" stop-color="#06E775"/>
<stop offset="1" stop-color="#00F076"/>
</linearGradient>
</defs>
</svg>
